2019-2020 Chicago Player Recuirment
…
Selecting Players by Expected NRtg

Lets see who the best expected net rating players are

players %>%
  select(player_name, Pos, salary, exp_NRtg) %>% 
  arrange(desc(exp_NRtg), salary) %>%
  top_n(30)

## Selecting by exp_NRtg

## # A tibble: 439 x 4
## # Groups:   player_name, Pos [439]
##    player_name           Pos     salary exp_NRtg
##    <chr>                 <chr>    <int>    <dbl>
##  1 Anthony Davis         C     25434263     82.2
##  2 Hassan Whiteside      C     24434262     78.3
##  3 Andre Drummond        C     25434262     63.0
##  4 Rudy Gobert           C     23491573     62.6
##  5 Mitchell Robinson     C      1485440     61.6
##  6 Joel Embiid           C     25467250     59.6
##  7 Giannis Antetokounmpo PF    24157304     58.8
##  8 Nikola Vucevic        C     12750000     58.4
##  9 Robert Williams       C      1656600     53.7
## 10 Karl-Anthony Towns    C      7839435     50.2
## # ... with 429 more rows
…
